<svg xmlns="http://www.w3.org/2000/svg" width="41" height="59" viewBox="0 0 41 59">
    <g data-name="그룹 1681">
        <g data-name="사각형 633" style="fill:#222;stroke:#222">
            <rect width="41" height="59" rx="4" style="stroke:none"/>
            <rect x=".5" y=".5" width="40" height="58" rx="3.5" style="fill:none"/>
        </g>
        <g data-name="그룹 567" style="opacity:.4">
            <path data-name="사각형 628" transform="translate(7 11)" style="fill:#ccc" d="M0 0h28v2H0z"/>
            <path data-name="사각형 629" transform="translate(7 17)" style="fill:#ccc" d="M0 0h28v10H0z"/>
            <path data-name="사각형 630" transform="translate(7 33)" style="fill:#ccc" d="M0 0h28v2H0z"/>
            <path data-name="사각형 631" transform="translate(7 40)" style="fill:#ccc" d="M0 0h28v2H0z"/>
            <path data-name="사각형 632" transform="translate(7 47)" style="fill:#ccc" d="M0 0h18v2H0z"/>
        </g>
    </g>
</svg>
