<svg xmlns="http://www.w3.org/2000/svg" width="28" height="28" viewBox="0 0 28 28">
    <g data-name="사각형 770" style="stroke:#d2d2d2;stroke-width:1.2px;fill:none">
        <rect width="28" height="28" rx="3" style="stroke:none"/>
        <rect x=".6" y=".6" width="26.8" height="26.8" rx="2.4" style="fill:none"/>
    </g>
    <g data-name="패스 220" style="fill:none">
        <path d="M2.4 0h7.2A2.228 2.228 0 0 1 12 2v16H0V2a2.228 2.228 0 0 1 2.4-2z" style="stroke:none" transform="translate(8 5)"/>
        <path d="M2.4 1C1.641 1 1 1.458 1 2v15h10V2c0-.542-.641-1-1.4-1H2.4m0-1h7.2c1.325 0 2.4.895 2.4 2v16H0V2C0 .895 1.075 0 2.4 0z" style="fill:#d2d2d2;stroke:none" transform="translate(8 5)"/>
    </g>
</svg>
